{ 
    "title":"Alles Wurscht Imbiss",
    "zip":"80802",
    "address":"Nikolaiplatz 3, 80802 München",
    "needInCent":70000,
    "thumbnailUrl":"https://trello-attachments.s3.amazonaws.com/5ddbae103daa356fc7849dc3/5e7745b872f2a23d16f11a66/589c5364bc7f52449226c4213569cdf5/Unbenannt.JPG",
    "imageUrls":[],
    "facebookUrl":"",
    "instagramUrl":"",
    "paypalUrl":"",
    "websiteUrl":""
}