{ 
    "title":"München 72",
    "zip":"80469",
    "address":"Holzstraße 16, 80469 München",
    "needInCent":3500000,
    "thumbnailUrl":"https://trello-attachments.s3.amazonaws.com/5ddbae103daa356fc7849dc3/5e7745583b13597d0ae3a686/598ab0ed4a114271108d6be0190297da/image3.jpeg",
    "imageUrls":[],
    "facebookUrl":"",
    "instagramUrl":"",
    "paypalUrl":"",
    "websiteUrl":""
}